[
    {
        "args": [
            {
                "inputSpec": "",
                "name": "Output Variables",
                "type": 5
            },
            {
                "inputSpec": "apppakc",
                "name": "Package",
                "type": 1
            }
        ],
        "category": "App",
        "code": 2078,
        "help": "app_changed",
        "name": "App Changed"
    },
    {
        "args": [],
        "category": "Power",
        "code": 203,
        "help": "battery_changed",
        "name": "Battery Changed"
    },
    {
        "args": [],
        "category": "Power",
        "code": 205,
        "name": "Battery Full"
    },
    {
        "args": [],
        "category": "Power",
        "code": 206,
        "name": "Battery Overheating"
    },
    {
        "args": [
            {
                "inputSpec": "t",
                "name": "Label",
                "type": 1
            }
        ],
        "category": "Date/Time",
        "code": 305,
        "help": "alarm",
        "name": "Alarm Clock"
    },
    {
        "args": [],
        "category": "Date/Time",
        "code": 306,
        "help": "alarm_done",
        "name": "Alarm Done"
    },
    {
        "args": [],
        "category": "Date/Time",
        "code": 300,
        "name": "Date Set"
    },
    {
        "args": [],
        "category": "Date/Time",
        "code": 302,
        "help": "date_set",
        "name": "Time/Date Set"
    },
    {
        "args": [],
        "category": "Date/Time",
        "code": 304,
        "name": "Timezone Set"
    },
    {
        "args": [],
        "category": "Display",
        "code": 210,
        "name": "Display Off"
    },
    {
        "args": [],
        "category": "Display",
        "code": 208,
        "help": "screen_on",
        "name": "Display On"
    },
    {
        "args": [],
        "category": "Display",
        "code": 1000,
        "help": "user_present",
        "name": "Display Unlocked"
    },
    {
        "args": [
            {
                "inputSpec": "f",
                "name": "File",
                "type": 1
            }
        ],
        "category": "File",
        "code": 230,
        "help": "file",
        "name": "File Attribute Change"
    },
    {
        "args": [
            {
                "inputSpec": "f",
                "name": "File",
                "type": 1
            }
        ],
        "category": "File",
        "code": 224,
        "help": "file",
        "name": "File Closed"
    },
    {
        "args": [
            {
                "inputSpec": "f",
                "name": "File",
                "type": 1
            }
        ],
        "category": "File",
        "code": 228,
        "help": "file",
        "name": "File Deleted"
    },
    {
        "args": [
            {
                "inputSpec": "f",
                "name": "File",
                "type": 1
            }
        ],
        "category": "File",
        "code": 222,
        "help": "file",
        "name": "File Modified"
    },
    {
        "args": [
            {
                "inputSpec": "f",
                "name": "File",
                "type": 1
            }
        ],
        "category": "File",
        "code": 220,
        "help": "file",
        "name": "File Moved"
    },
    {
        "args": [
            {
                "inputSpec": "f",
                "name": "File",
                "type": 1
            }
        ],
        "category": "File",
        "code": 226,
        "help": "file",
        "name": "File Opened"
    },
    {
        "args": [
            {
                "inputSpec": "",
                "name": "Name",
                "type": 1
            },
            {
                "inputSpec": "acc",
                "name": "Pattern",
                "type": 1
            }
        ],
        "category": "Sensor",
        "code": 3000,
        "help": "accelerometer_gesture",
        "name": "Gesture"
    },
    {
        "args": [
            {
                "inputSpec": "",
                "name": "Axis",
                "type": 0
            },
            {
                "inputSpec": "",
                "name": "Sensitivity",
                "type": 0
            },
            {
                "inputSpec": "",
                "name": "Duration",
                "type": 0
            }
        ],
        "category": "Sensor",
        "code": 3001,
        "help": "shake",
        "name": "Shake"
    },
    {
        "args": [
            {
                "inputSpec": "1:999999:1",
                "name": "Number",
                "type": 0
            }
        ],
        "category": "Sensor",
        "code": 309,
        "help": "steps",
        "name": "Steps Taken"
    },
    {
        "args": [
            {
                "inputSpec": "p",
                "name": "Caller",
                "type": 1
            }
        ],
        "category": "Phone",
        "code": 2003,
        "help": "missed_call",
        "name": "Missed Call"
    },
    {
        "args": [],
        "category": "Phone",
        "code": 4,
        "help": "phone_idle",
        "name": "Phone Idle"
    },
    {
        "args": [],
        "category": "Phone",
        "code": 2,
        "help": "phone_offhook",
        "name": "Phone Offhook"
    },
    {
        "args": [
            {
                "inputSpec": "p",
                "name": "Caller",
                "type": 1
            }
        ],
        "category": "Phone",
        "code": 6,
        "help": "phone_ringing",
        "name": "Phone Ringing"
    },
    {
        "args": [
            {
                "inputSpec": "sms",
                "name": "Sender",
                "type": 1
            },
            {
                "inputSpec": "0:65535:?",
                "name": "Port",
                "type": 0
            },
            {
                "inputSpec": "t:3",
                "name": "Data",
                "type": 1
            }
        ],
        "category": "Phone",
        "code": 8,
        "help": "received_data_sms",
        "name": "Received Data SMS"
    },
    {
        "args": [
            {
                "inputSpec": "",
                "name": "Type",
                "type": 0
            },
            {
                "inputSpec": "sms",
                "name": "Sender",
                "type": 1
            },
            {
                "inputSpec": "t",
                "name": "Content",
                "type": 1
            }
        ],
        "category": "Phone",
        "code": 7,
        "help": "received_sms",
        "name": "Received Text"
    },
    {
        "args": [
            {
                "inputSpec": "sms",
                "name": "Recipient",
                "type": 1
            }
        ],
        "category": "Phone",
        "code": 2010,
        "help": "sms_failure",
        "name": "SMS Failure"
    },
    {
        "args": [
            {
                "inputSpec": "sms",
                "name": "Recipient",
                "type": 1
            }
        ],
        "category": "Phone",
        "code": 2005,
        "help": "sms_success",
        "name": "SMS Success"
    },
    {
        "args": [],
        "category": "Hardware",
        "code": 215,
        "help": "camera_button",
        "name": "Button: Camera"
    },
    {
        "args": [],
        "category": "Hardware",
        "code": 216,
        "help": "button_search_long",
        "name": "Button: Long Search"
    },
    {
        "args": [
            {
                "inputSpec": "t",
                "name": "Card Title",
                "type": 1
            },
            {
                "inputSpec": "",
                "name": "Frequency",
                "type": 0
            }
        ],
        "category": "Hardware",
        "code": 134,
        "help": "media_mounted",
        "name": "Card Mounted"
    },
    {
        "args": [],
        "category": "Hardware",
        "code": 136,
        "help": "media_removed",
        "name": "Card Removed"
    },
    {
        "args": [],
        "category": "Hardware",
        "code": 135,
        "help": "media_unmounted",
        "name": "Card Unmounted"
    },
    {
        "args": [
            {
                "inputSpec": "t:1:?",
                "name": "Action",
                "type": 1
            },
            {
                "inputSpec": "",
                "name": "Cat",
                "type": 0
            },
            {
                "inputSpec": "",
                "name": "Cat",
                "type": 0
            },
            {
                "inputSpec": "t:1:?",
                "name": "Scheme",
                "type": 1
            },
            {
                "inputSpec": "mime:1:?",
                "name": "Mime Type",
                "type": 1
            }
        ],
        "category": "System",
        "code": 599,
        "help": "intent_received",
        "name": "Intent Received"
    },
    {
        "args": [],
        "category": "System",
        "code": 411,
        "help": "boot_completed",
        "name": "Device Boot"
    },
    {
        "args": [],
        "category": "System",
        "code": 413,
        "help": "shutdown",
        "name": "Device Shutdown"
    },
    {
        "args": [],
        "category": "System",
        "code": 422,
        "name": "Device Storage Low"
    },
    {
        "args": [],
        "category": "System",
        "code": 429,
        "name": "Locale Changed"
    },
    {
        "args": [
            {
                "inputSpec": "pkgLabel",
                "name": "Name",
                "type": 1
            },
            {
                "inputSpec": "pkgName",
                "name": "Package",
                "type": 1
            }
        ],
        "category": "System",
        "code": 450,
        "help": "new_package",
        "name": "New Package"
    },
    {
        "args": [
            {
                "inputSpec": "pkgLabel",
                "name": "Name",
                "type": 1
            },
            {
                "inputSpec": "pkgName",
                "name": "Package",
                "type": 1
            }
        ],
        "category": "System",
        "code": 453,
        "help": "package_updated",
        "name": "Package Updated"
    },
    {
        "args": [
            {
                "inputSpec": "pkgName",
                "name": "Package",
                "type": 1
            }
        ],
        "category": "System",
        "code": 451,
        "help": "package_removed",
        "name": "Package Removed"
    },
    {
        "args": [],
        "category": "Tasker",
        "code": 307,
        "help": "monitor_start",
        "name": "Monitor Start"
    },
    {
        "args": [
            {
                "inputSpec": "m",
                "name": "Task",
                "type": 1
            },
            {
                "inputSpec": "",
                "name": "Type",
                "type": 0
            }
        ],
        "category": "Tasker",
        "code": 303,
        "help": "timer_change",
        "name": "Timer Change"
    },
    {
        "args": [],
        "category": "System",
        "code": 460,
        "name": "Wallpaper Changed"
    },
    {
        "args": [
            {
                "inputSpec": "var",
                "name": "Variable",
                "type": 1
            },
            {
                "inputSpec": "",
                "name": "User Variables Only",
                "type": 3
            }
        ],
        "category": "Variables",
        "code": 3060,
        "help": "variable_cleared",
        "name": "Variable Cleared"
    },
    {
        "args": [
            {
                "inputSpec": "var",
                "name": "Variable",
                "type": 1
            },
            {
                "inputSpec": "t",
                "name": "Value",
                "type": 1
            },
            {
                "inputSpec": "",
                "name": "User Variables Only",
                "type": 3
            }
        ],
        "category": "Variables",
        "code": 3050,
        "help": "variable_set",
        "name": "Variable Set"
    },
    {
        "args": [
            {
                "inputSpec": "t",
                "name": "Label",
                "type": 1
            },
            {
                "inputSpec": "",
                "name": "Button Type",
                "type": 0
            },
            {
                "inputSpec": "",
                "name": "Click Length",
                "type": 0
            },
            {
                "inputSpec": "",
                "name": "New Button State",
                "type": 0
            }
        ],
        "category": "UI",
        "code": 462,
        "help": "button_view_clicked",
        "name": "Button Widget Clicked"
    },
    {
        "args": [
            {
                "inputSpec": "",
                "name": "App",
                "type": 2
            }
        ],
        "category": "UI",
        "code": 201,
        "help": "assist",
        "name": "Assistance Request"
    },
    {
        "args": [
            {
                "inputSpec": "t",
                "name": "Widget Name",
                "type": 1
            },
            {
                "inputSpec": "t",
                "name": "Element Name",
                "type": 1
            }
        ],
        "category": "UI",
        "code": 3071,
        "help": "zoom_click",
        "name": "Zoom Click"
    },
    {
        "args": [
            {
                "inputSpec": "t",
                "name": "Label",
                "type": 1
            },
            {
                "inputSpec": "",
                "name": "Window Type",
                "type": 0
            }
        ],
        "category": "UI",
        "code": 463,
        "help": "new_window",
        "name": "New Window"
    },
    {
        "args": [
            {
                "inputSpec": "",
                "name": "Owner Application",
                "type": 2
            },
            {
                "inputSpec": "t",
                "name": "Title",
                "type": 1
            },
            {
                "inputSpec": "t",
                "name": "Text",
                "type": 1
            },
            {
                "inputSpec": "t",
                "name": "Subtext",
                "type": 1
            },
            {
                "inputSpec": "t",
                "name": "Messages",
                "type": 1
            },
            {
                "inputSpec": "t",
                "name": "Other Text",
                "type": 1
            },
            {
                "inputSpec": "ncat",
                "name": "Cat",
                "type": 1
            },
            {
                "inputSpec": "true",
                "name": "New Only",
                "type": 3
            }
        ],
        "category": "UI",
        "code": 461,
        "help": "new_notification",
        "name": "Notification"
    },
    {
        "args": [
            {
                "inputSpec": "",
                "name": "Owner Application",
                "type": 2
            },
            {
                "inputSpec": "t",
                "name": "Title",
                "type": 1
            },
            {
                "inputSpec": "t",
                "name": "Text",
                "type": 1
            },
            {
                "inputSpec": "t",
                "name": "Subtext",
                "type": 1
            },
            {
                "inputSpec": "t",
                "name": "Other Text",
                "type": 1
            },
            {
                "inputSpec": "ncat",
                "name": "Cat",
                "type": 1
            }
        ],
        "category": "UI",
        "code": 464,
        "help": "new_notification",
        "name": "Notification Removed"
    },
    {
        "args": [
            {
                "inputSpec": "",
                "name": "Owner Application",
                "type": 2
            },
            {
                "inputSpec": "t",
                "name": "Title",
                "type": 1
            }
        ],
        "category": "UI",
        "code": 2000,
        "help": "notification_clicked",
        "name": "Notification Click"
    },
    {
        "args": [
            {
                "inputSpec": "t",
                "name": "Label",
                "type": 1
            }
        ],
        "category": "System",
        "code": 2050,
        "help": "quick_setting_clicked",
        "name": "Quick Setting Clicked"
    },
    {
        "args": [
            {
                "inputSpec": "",
                "name": "Type",
                "type": 0
            },
            {
                "inputSpec": "sset",
                "name": "Name",
                "type": 1
            },
            {
                "inputSpec": "t",
                "name": "Value",
                "type": 1
            }
        ],
        "category": "System",
        "code": 2075,
        "help": "custom_setting",
        "name": "Custom Setting"
    },
    {
        "args": [
            {
                "inputSpec": "nfctid",
                "name": "ID",
                "type": 1
            },
            {
                "inputSpec": "nfctcont",
                "name": "Content",
                "type": 1
            }
        ],
        "category": "Net",
        "code": 2076,
        "help": "nfc_tag",
        "name": "NFC Tag"
    },
    {
        "args": [],
        "category": "Tasker",
        "code": 2077,
        "help": "secondary_app_opened",
        "name": "Secondary App Opened"
    },
    {
        "args": [
            {
                "inputSpec": "",
                "name": "Type",
                "type": 0
            },
            {
                "inputSpec": "buttprsti",
                "name": "Additional Time (Check Help)",
                "type": 1
            }
        ],
        "category": "Hardware",
        "code": 2079,
        "help": "volume_long_press",
        "name": "Volume Long Press"
    },
    {
        "args": [
            {
                "inputSpec": "t",
                "name": "From",
                "type": 1
            },
            {
                "inputSpec": "t",
                "name": "Subject",
                "type": 1
            },
            {
                "inputSpec": "t",
                "name": "Receiving Account",
                "type": 1
            }
        ],
        "category": "3rd Party",
        "code": 425,
        "help": "received_email",
        "name": "K9 Email Received"
    },
    {
        "args": [
            {
                "inputSpec": "",
                "name": "Event",
                "type": 0
            },
            {
                "inputSpec": "t",
                "name": "Name",
                "type": 1
            },
            {
                "inputSpec": "t",
                "name": "Message",
                "type": 1
            },
            {
                "inputSpec": "t",
                "name": "Profile",
                "type": 1
            },
            {
                "inputSpec": "",
                "name": "Type",
                "type": 0
            }
        ],
        "category": "3rd Party",
        "code": 446,
        "help": "gentle_alarm",
        "name": "Gentle Alarm"
    },
    {
        "args": [
            {
                "inputSpec": "",
                "name": "Event",
                "type": 0
            },
            {
                "inputSpec": "t",
                "name": "Name",
                "type": 1
            }
        ],
        "category": "3rd Party",
        "code": 428,
        "help": "kaloer_clock",
        "name": "Kaloer Clock"
    },
    {
        "args": [
            {
                "inputSpec": "t",
                "name": "App",
                "type": 1
            },
            {
                "inputSpec": "t",
                "name": "Event",
                "type": 1
            },
            {
                "inputSpec": "t",
                "name": "Description",
                "type": 1
            },
            {
                "inputSpec": "t",
                "name": "URL",
                "type": 1
            }
        ],
        "category": "3rd Party",
        "code": 448,
        "help": "notifymyandroid",
        "name": "Notify My Android"
    },
    {
        "args": [
            {
                "inputSpec": "",
                "name": "Event",
                "type": 0
            }
        ],
        "category": "3rd Party",
        "code": 444,
        "help": "pomodroido",
        "name": "Pomodroido"
    },
    {
        "args": [
            {
                "inputSpec": "",
                "name": "Event",
                "type": 0
            }
        ],
        "category": "3rd Party",
        "code": 445,
        "help": "radardroid",
        "name": "Radardroid"
    },
    {
        "args": [
            {
                "inputSpec": "",
                "name": "Event",
                "type": 0
            },
            {
                "inputSpec": "",
                "name": "Number",
                "type": 0
            },
            {
                "inputSpec": "t",
                "name": "Message",
                "type": 1
            }
        ],
        "category": "3rd Party",
        "code": 447,
        "help": "redditnotify",
        "name": "Reddit Notify"
    },
    {
        "args": [
            {
                "inputSpec": "",
                "name": "Within Range",
                "type": 0
            }
        ],
        "category": "3rd Party",
        "code": 424,
        "help": "screebl",
        "name": "Screebl / TSC"
    },
    {
        "args": [
            {
                "inputSpec": "",
                "name": "Event",
                "type": 0
            }
        ],
        "category": "3rd Party",
        "code": 426,
        "help": "widgetlocker",
        "name": "Widget Locker"
    },
    {
        "args": [
            {
                "inputSpec": "",
                "name": "Event",
                "type": 0
            }
        ],
        "category": "3rd Party",
        "code": 427,
        "help": "openwatch",
        "name": "OpenWatch"
    }
]